{
  "ip": "1.1.1.1",
  "hostname": "some.host.name",
  "city": "CITY",
  "region": "REGION",
  "country": "US",
  "loc": "LAT,LONG",
  "org": "ORG",
  "postal": "ZIPCODE",
  "timezone": "TIMEZONE",
  "readme": "https://ipinfo.io/missingauth"
}
